[32m2024-07-06 22:02:09 -0700[0m - dagster - [34mDEBUG[0m - teslacam_job - 93377d18-dba9-4722-ad18-18c3153f2744 - 83569 - LOGS_CAPTURED - Started capturing logs in process (pid: 83569).
[32m2024-07-06 22:02:09 -0700[0m - dagster - [34mDEBUG[0m - teslacam_job - 93377d18-dba9-4722-ad18-18c3153f2744 - 83569 - check_footage_recentclips - STEP_START - Started execution of step "check_footage_recentclips".
[32m2024-07-06 22:02:11 -0700[0m - dagster - [34mINFO[0m - teslacam_job - 93377d18-dba9-4722-ad18-18c3153f2744 - check_footage_recentclips - looking for files in /Users/pushpak.ravitej/personal/Teslacam/src/SentryClips
Traceback (most recent call last):
  File "/Users/pushpak.ravitej/.vscode/extensions/ms-python.debugpy-2024.6.0-darwin-arm64/bundled/libs/debugpy/_vendored/pydevd/_pydevd_bundle/pydevd_frame.py", line 430, in _handle_exception
    self.do_wait_suspend(thread, frame, event, arg, exception_type=exception_type)
  File "/Users/pushpak.ravitej/.vscode/extensions/ms-python.debugpy-2024.6.0-darwin-arm64/bundled/libs/debugpy/_vendored/pydevd/_pydevd_bundle/pydevd_frame.py", line 165, in do_wait_suspend
    self._args[0].do_wait_suspend(*args, **kwargs)
  File "/Users/pushpak.ravitej/.vscode/extensions/ms-python.debugpy-2024.6.0-darwin-arm64/bundled/libs/debugpy/_vendored/pydevd/pydevd.py", line 2070, in do_wait_suspend
    keep_suspended = self._do_wait_suspend(thread, frame, event, arg, suspend_type, from_this_thread, frames_tracker)
                     ^^^^^^^^^^^^^^^^^^^^^^^^^^^^^^^^^^^^^^^^^^^^^^^^^^^^^^^^^^^^^^^^^^^^^^^^^^^^^^^^^^^^^^^^^^^^^^^^
  File "/Users/pushpak.ravitej/.vscode/extensions/ms-python.debugpy-2024.6.0-darwin-arm64/bundled/libs/debugpy/_vendored/pydevd/pydevd.py", line 2106, in _do_wait_suspend
    time.sleep(0.01)
  File "/Users/pushpak.ravitej/deploy/.venv/lib/python3.12/site-packages/dagster/_utils/interrupts.py", line 82, in _new_signal_handler
    raise error_cls()
dagster._core.errors.DagsterExecutionInterruptedError
[32m2024-07-06 22:02:47 -0700[0m - dagster - [34mERROR[0m - [31mteslacam_job - 93377d18-dba9-4722-ad18-18c3153f2744 - 83569 - check_footage_recentclips - STEP_FAILURE - Execution of step "check_footage_recentclips" failed.

dagster._core.errors.DagsterExecutionStepExecutionError: Error occurred while executing op "check_footage_recentclips"::

TypeError: expected str, bytes or os.PathLike object, not list

Stack Trace:
  File "/Users/pushpak.ravitej/deploy/.venv/lib/python3.12/site-packages/dagster/_core/execution/plan/utils.py", line 54, in op_execution_error_boundary
    yield
  File "/Users/pushpak.ravitej/deploy/.venv/lib/python3.12/site-packages/dagster/_utils/__init__.py", line 468, in iterate_with_context
    next_output = next(iterator)
                  ^^^^^^^^^^^^^^
  File "/Users/pushpak.ravitej/deploy/dev/dagster/teslacam/assets.py", line 163, in check_footage_recentclips
    shutil.copy2(file, dest_folder)
  File "/opt/homebrew/Cellar/python@3.12/3.12.3/Frameworks/Python.framework/Versions/3.12/lib/python3.12/shutil.py", line 451, in copy2
    dst = os.path.join(dst, os.path.basename(src))
                            ^^^^^^^^^^^^^^^^^^^^^
  File "<frozen posixpath>", line 171, in basename
[0m
