[32m2024-07-10 00:08:04 -0700[0m - dagster - [34mDEBUG[0m - teslacam_job - 3c5f86c0-f61b-432d-b10d-8ed6edc3edb1 - 76876 - LOGS_CAPTURED - Started capturing logs in process (pid: 76876).
[32m2024-07-10 00:08:04 -0700[0m - dagster - [34mDEBUG[0m - teslacam_job - 3c5f86c0-f61b-432d-b10d-8ed6edc3edb1 - 76876 - process_footage_recentclips_process_footage_recentclips_check - STEP_START - Started execution of step "process_footage_recentclips_process_footage_recentclips_check".
Traceback (most recent call last):
  File "/Users/pushpak.ravitej/.vscode/extensions/ms-python.debugpy-2024.6.0-darwin-arm64/bundled/libs/debugpy/_vendored/pydevd/_pydevd_bundle/pydevd_frame.py", line 988, in trace_dispatch
    self.do_wait_suspend(thread, frame, event, arg)
  File "/Users/pushpak.ravitej/.vscode/extensions/ms-python.debugpy-2024.6.0-darwin-arm64/bundled/libs/debugpy/_vendored/pydevd/_pydevd_bundle/pydevd_frame.py", line 165, in do_wait_suspend
    self._args[0].do_wait_suspend(*args, **kwargs)
  File "/Users/pushpak.ravitej/.vscode/extensions/ms-python.debugpy-2024.6.0-darwin-arm64/bundled/libs/debugpy/_vendored/pydevd/pydevd.py", line 2070, in do_wait_suspend
    keep_suspended = self._do_wait_suspend(thread, frame, event, arg, suspend_type, from_this_thread, frames_tracker)
                     ^^^^^^^^^^^^^^^^^^^^^^^^^^^^^^^^^^^^^^^^^^^^^^^^^^^^^^^^^^^^^^^^^^^^^^^^^^^^^^^^^^^^^^^^^^^^^^^^
  File "/Users/pushpak.ravitej/.vscode/extensions/ms-python.debugpy-2024.6.0-darwin-arm64/bundled/libs/debugpy/_vendored/pydevd/pydevd.py", line 2106, in _do_wait_suspend
    time.sleep(0.01)
  File "/Users/pushpak.ravitej/deploy/dev/dagster/meltano/.venv/lib/python3.12/site-packages/dagster/_utils/interrupts.py", line 82, in _new_signal_handler
    raise error_cls()
dagster._core.errors.DagsterExecutionInterruptedError
[32m2024-07-10 00:09:14 -0700[0m - dagster - [34mERROR[0m - [31mteslacam_job - 3c5f86c0-f61b-432d-b10d-8ed6edc3edb1 - 76876 - process_footage_recentclips_process_footage_recentclips_check - STEP_FAILURE - Execution of step "process_footage_recentclips_process_footage_recentclips_check" failed.

dagster._core.errors.DagsterExecutionInterruptedError

Stack Trace:
  File "/Users/pushpak.ravitej/deploy/dev/dagster/meltano/.venv/lib/python3.12/site-packages/dagster/_core/execution/plan/execute_plan.py", line 282, in dagster_event_sequence_for_step
    for step_event in check.generator(step_events):
  File "/Users/pushpak.ravitej/deploy/dev/dagster/meltano/.venv/lib/python3.12/site-packages/dagster/_core/execution/plan/execute_step.py", line 494, in core_dagster_event_sequence_for_step
    for user_event in _step_output_error_checked_user_event_sequence(
  File "/Users/pushpak.ravitej/deploy/dev/dagster/meltano/.venv/lib/python3.12/site-packages/dagster/_core/execution/plan/execute_step.py", line 183, in _step_output_error_checked_user_event_sequence
    for user_event in user_event_sequence:
  File "/Users/pushpak.ravitej/deploy/dev/dagster/meltano/.venv/lib/python3.12/site-packages/dagster/_core/execution/plan/execute_step.py", line 88, in _process_asset_results_to_events
    for user_event in user_event_sequence:
  File "/Users/pushpak.ravitej/deploy/dev/dagster/meltano/.venv/lib/python3.12/site-packages/dagster/_core/execution/plan/compute.py", line 198, in execute_core_compute
    for step_output in _yield_compute_results(step_context, inputs, compute_fn, compute_context):
  File "/Users/pushpak.ravitej/deploy/dev/dagster/meltano/.venv/lib/python3.12/site-packages/dagster/_core/execution/plan/compute.py", line 167, in _yield_compute_results
    for event in iterate_with_context(
  File "/Users/pushpak.ravitej/deploy/dev/dagster/meltano/.venv/lib/python3.12/site-packages/dagster/_utils/__init__.py", line 468, in iterate_with_context
    next_output = next(iterator)
                  ^^^^^^^^^^^^^^
  File "/Users/pushpak.ravitej/deploy/dev/dagster/meltano/.venv/lib/python3.12/site-packages/dagster/_core/execution/plan/compute_generator.py", line 141, in _coerce_op_compute_fn_to_iterator
    result = invoke_compute_fn(
             ^^^^^^^^^^^^^^^^^^
  File "/Users/pushpak.ravitej/deploy/dev/dagster/meltano/.venv/lib/python3.12/site-packages/dagster/_core/execution/plan/compute_generator.py", line 129, in invoke_compute_fn
    return fn(context, **args_to_pass) if context_arg_provided else fn(**args_to_pass)
           ^^^^^^^^^^^^^^^^^^^^^^^^^^^
  File "/Users/pushpak.ravitej/deploy/dev/dagster/teslacam/assets.py", line 295, in process_footage_recentclips_check
    context.log.info("checking if processing was successful")
    ^^^^^^^
  File "/Users/pushpak.ravitej/.vscode/extensions/ms-python.debugpy-2024.6.0-darwin-arm64/bundled/libs/debugpy/_vendored/pydevd/_pydevd_bundle/pydevd_frame.py", line 988, in trace_dispatch
    self.do_wait_suspend(thread, frame, event, arg)
  File "/Users/pushpak.ravitej/.vscode/extensions/ms-python.debugpy-2024.6.0-darwin-arm64/bundled/libs/debugpy/_vendored/pydevd/_pydevd_bundle/pydevd_frame.py", line 165, in do_wait_suspend
    self._args[0].do_wait_suspend(*args, **kwargs)
  File "/Users/pushpak.ravitej/.vscode/extensions/ms-python.debugpy-2024.6.0-darwin-arm64/bundled/libs/debugpy/_vendored/pydevd/pydevd.py", line 2070, in do_wait_suspend
    keep_suspended = self._do_wait_suspend(thread, frame, event, arg, suspend_type, from_this_thread, frames_tracker)
                     ^^^^^^^^^^^^^^^^^^^^^^^^^^^^^^^^^^^^^^^^^^^^^^^^^^^^^^^^^^^^^^^^^^^^^^^^^^^^^^^^^^^^^^^^^^^^^^^^
  File "/Users/pushpak.ravitej/.vscode/extensions/ms-python.debugpy-2024.6.0-darwin-arm64/bundled/libs/debugpy/_vendored/pydevd/pydevd.py", line 2106, in _do_wait_suspend
    time.sleep(0.01)
  File "/Users/pushpak.ravitej/deploy/dev/dagster/meltano/.venv/lib/python3.12/site-packages/dagster/_utils/interrupts.py", line 82, in _new_signal_handler
    raise error_cls()
[0m
