[32m2024-06-19 13:11:08 -0700[0m - dagster - [34mDEBUG[0m - teslacam_job - 3848216e-b00b-417a-889d-2b2b748d40f2 - 74298 - LOGS_CAPTURED - Started capturing logs in process (pid: 74298).
[32m2024-06-19 13:11:08 -0700[0m - dagster - [34mDEBUG[0m - teslacam_job - 3848216e-b00b-417a-889d-2b2b748d40f2 - 74298 - check_footage_recentclips - STEP_START - Started execution of step "check_footage_recentclips".
[32m2024-06-19 13:11:08 -0700[0m - dagster - [34mWARNING[0m - teslacam_job - 3848216e-b00b-417a-889d-2b2b748d40f2 - check_footage_recentclips - {'message': 'There are no files to process', 'partition': '2024-06-08', 'folder': '/Users/pushpak.ravitej/personal/Teslacam/src/RecentClips/2024-06-08', 'files': None}
[32m2024-06-19 13:11:08 -0700[0m - dagster - [34mDEBUG[0m - teslacam_job - 3848216e-b00b-417a-889d-2b2b748d40f2 - 74298 - check_footage_recentclips - STEP_SUCCESS - Finished execution of step "check_footage_recentclips" in 23ms.
