[32m2024-06-19 21:31:33 -0700[0m - dagster - [34mDEBUG[0m - teslacam_job - 788c8c44-66fb-4e8d-ab3e-af6ddced4bf7 - 28097 - LOGS_CAPTURED - Started capturing logs in process (pid: 28097).
[32m2024-06-19 21:31:33 -0700[0m - dagster - [34mDEBUG[0m - teslacam_job - 788c8c44-66fb-4e8d-ab3e-af6ddced4bf7 - 28097 - check_footage_recentclips - STEP_START - Started execution of step "check_footage_recentclips".
[32m2024-06-19 21:31:33 -0700[0m - dagster - [34mINFO[0m - teslacam_job - 788c8c44-66fb-4e8d-ab3e-af6ddced4bf7 - check_footage_recentclips - looking for files in /Users/pushpak.ravitej/personal/Teslacam/src/RecentClips
[32m2024-06-19 21:31:33 -0700[0m - dagster - [34mWARNING[0m - teslacam_job - 788c8c44-66fb-4e8d-ab3e-af6ddced4bf7 - check_footage_recentclips - {'message': 'There are no new files to process', 'partition': '2024-01-01', 'folder': '/Users/pushpak.ravitej/personal/Teslacam/src/RecentClips/2024-01-01', 'files': None}
[32m2024-06-19 21:31:33 -0700[0m - dagster - [34mDEBUG[0m - teslacam_job - 788c8c44-66fb-4e8d-ab3e-af6ddced4bf7 - 28097 - check_footage_recentclips - STEP_OUTPUT - Yielded output "result" of type "Any". (Type check passed).
[32m2024-06-19 21:31:34 -0700[0m - dagster - [34mDEBUG[0m - teslacam_job - 788c8c44-66fb-4e8d-ab3e-af6ddced4bf7 - check_footage_recentclips - Writing file at: /Users/pushpak.ravitej/deploy/dev/dagster/storage/check_footage_recentclips/2024-01-01 using PickledObjectFilesystemIOManager...
[32m2024-06-19 21:31:34 -0700[0m - dagster - [34mDEBUG[0m - teslacam_job - 788c8c44-66fb-4e8d-ab3e-af6ddced4bf7 - 28097 - check_footage_recentclips - ASSET_MATERIALIZATION - Materialized value check_footage_recentclips.
[32m2024-06-19 21:31:34 -0700[0m - dagster - [34mDEBUG[0m - teslacam_job - 788c8c44-66fb-4e8d-ab3e-af6ddced4bf7 - 28097 - check_footage_recentclips - HANDLED_OUTPUT - Handled output "result" using IO manager "io_manager"
[32m2024-06-19 21:31:34 -0700[0m - dagster - [34mDEBUG[0m - teslacam_job - 788c8c44-66fb-4e8d-ab3e-af6ddced4bf7 - 28097 - check_footage_recentclips - STEP_SUCCESS - Finished execution of step "check_footage_recentclips" in 557ms.
