[32m2024-06-19 13:52:09 -0700[0m - dagster - [34mDEBUG[0m - teslacam_job - 1911e191-6ba2-4ae2-bbc6-15fc96a4f44f - 80241 - LOGS_CAPTURED - Started capturing logs in process (pid: 80241).
[32m2024-06-19 13:52:09 -0700[0m - dagster - [34mDEBUG[0m - teslacam_job - 1911e191-6ba2-4ae2-bbc6-15fc96a4f44f - 80241 - process_footage_recentclips - STEP_START - Started execution of step "process_footage_recentclips".
[32m2024-06-19 13:52:10 -0700[0m - dagster - [34mDEBUG[0m - teslacam_job - 1911e191-6ba2-4ae2-bbc6-15fc96a4f44f - process_footage_recentclips - Loading 1 partitions...
[32m2024-06-19 13:52:10 -0700[0m - dagster - [34mDEBUG[0m - teslacam_job - 1911e191-6ba2-4ae2-bbc6-15fc96a4f44f - process_footage_recentclips - Loading partition 2022-04-15 from /Users/pushpak.ravitej/deploy/dev/dagster/storage/check_footage_recentclips/2022-04-15 using PickledObjectFilesystemIOManager...
[32m2024-06-19 13:52:10 -0700[0m - dagster - [34mDEBUG[0m - teslacam_job - 1911e191-6ba2-4ae2-bbc6-15fc96a4f44f - 80241 - process_footage_recentclips - LOADED_INPUT - Loaded input "check_footage_recentclips" using input manager "io_manager", from output "result" of step "check_footage_recentclips"
[32m2024-06-19 13:52:10 -0700[0m - dagster - [34mDEBUG[0m - teslacam_job - 1911e191-6ba2-4ae2-bbc6-15fc96a4f44f - 80241 - process_footage_recentclips - STEP_INPUT - Got input "check_footage_recentclips" of type "Any". (Type check passed).
[32m2024-06-19 13:52:10 -0700[0m - dagster - [34mINFO[0m - teslacam_job - 1911e191-6ba2-4ae2-bbc6-15fc96a4f44f - process_footage_recentclips - {'message': 'Processing footage in /Users/pushpak.ravitej/personal/Teslacam/temp/1911e191-6ba2-4ae2-bbc6-15fc96a4f44f', 'partition': '2022-04-15'}
[32m2024-06-19 13:52:12 -0700[0m - dagster - [34mINFO[0m - teslacam_job - 1911e191-6ba2-4ae2-bbc6-15fc96a4f44f - process_footage_recentclips - {'folder_name': 'RecentClips', 'partition_key': '2022-04-15', 'output_path': '/Users/pushpak.ravitej/personal/Teslacam/dest/RecentClips/2022-04-15', 'temp_dir': '/Users/pushpak.ravitej/personal/Teslacam/temp', 'stdout_str': '2024-06-19 13:52:10 - Monitoring for trigger /Users/pushpak.ravitej/personal/Teslacam/temp/1911e191-6ba2-4ae2-bbc6-15fc96a4f44f to exist. Press CTRL-C to stop\n2024-06-19 13:52:10 - Trigger /Users/pushpak.ravitej/personal/Teslacam/temp/1911e191-6ba2-4ae2-bbc6-15fc96a4f44f exist.\n2024-06-19 13:52:10 - Retrieving all files from /Users/pushpak.ravitej/personal/Teslacam/temp/1911e191-6ba2-4ae2-bbc6-15fc96a4f44f/RecentClips\n2024-06-19 13:52:10 - Scanning 1 folder(s)\n2024-06-19 13:52:11 - There are 1 event folder(s) with 11 clips to process.\n2024-06-19 13:52:11 - \tSkipping folder /Users/pushpak.ravitej/personal/Teslacam/temp/1911e191-6ba2-4ae2-bbc6-15fc96a4f44f/RecentClips as /Users/pushpak.ravitej/personal/Teslacam/dest/RecentClips/2022-04-15/2022-04-15T18-17-34_2022-04-15T18-28-36.mp4 is already created (1/1)\n2024-06-19 13:52:12 - All folders have been processed, resulting movie files are located in /Users/pushpak.ravitej/personal/Teslacam/dest/RecentClips/2022-04-15\n2024-06-19 13:52:12 - Total processing time: 0:00:00\n1 folder with 11 clips have been processed, /Users/pushpak.ravitej/personal/Teslacam/dest/RecentClips/2022-04-15 contains resulting files.\n\n2024-06-19 13:52:12 - Processing of movies has completed.\n2024-06-19 13:52:12 - Exiting monitoring as asked process once.\n', 'stderr_str': '', 'return_code': 0}
[32m2024-06-19 13:52:12 -0700[0m - dagster - [34mDEBUG[0m - teslacam_job - 1911e191-6ba2-4ae2-bbc6-15fc96a4f44f - 80241 - process_footage_recentclips - STEP_OUTPUT - Yielded output "result" of type "Any". (Type check passed).
[32m2024-06-19 13:52:12 -0700[0m - dagster - [34mDEBUG[0m - teslacam_job - 1911e191-6ba2-4ae2-bbc6-15fc96a4f44f - process_footage_recentclips - Writing file at: /Users/pushpak.ravitej/deploy/dev/dagster/storage/process_footage_recentclips/2022-04-15 using PickledObjectFilesystemIOManager...
[32m2024-06-19 13:52:12 -0700[0m - dagster - [34mDEBUG[0m - teslacam_job - 1911e191-6ba2-4ae2-bbc6-15fc96a4f44f - 80241 - process_footage_recentclips - ASSET_MATERIALIZATION - Materialized value process_footage_recentclips.
[32m2024-06-19 13:52:12 -0700[0m - dagster - [34mDEBUG[0m - teslacam_job - 1911e191-6ba2-4ae2-bbc6-15fc96a4f44f - 80241 - process_footage_recentclips - HANDLED_OUTPUT - Handled output "result" using IO manager "io_manager"
[32m2024-06-19 13:52:12 -0700[0m - dagster - [34mDEBUG[0m - teslacam_job - 1911e191-6ba2-4ae2-bbc6-15fc96a4f44f - 80241 - process_footage_recentclips - STEP_SUCCESS - Finished execution of step "process_footage_recentclips" in 2.49s.
