[32m2024-07-09 23:20:09 -0700[0m - dagster - [34mDEBUG[0m - teslacam_job - bf25f277-d6ac-4b8b-a3b9-947281bec42f - 70152 - LOGS_CAPTURED - Started capturing logs in process (pid: 70152).
[32m2024-07-09 23:20:09 -0700[0m - dagster - [34mDEBUG[0m - teslacam_job - bf25f277-d6ac-4b8b-a3b9-947281bec42f - 70152 - process_footage_recentclips - STEP_START - Started execution of step "process_footage_recentclips".
[32m2024-07-09 23:20:10 -0700[0m - dagster - [34mDEBUG[0m - teslacam_job - bf25f277-d6ac-4b8b-a3b9-947281bec42f - process_footage_recentclips - Loading 1 partitions...
[32m2024-07-09 23:20:10 -0700[0m - dagster - [34mDEBUG[0m - teslacam_job - bf25f277-d6ac-4b8b-a3b9-947281bec42f - process_footage_recentclips - Loading partition ujala|2022-01-01 from /Users/pushpak.ravitej/deploy/dev/dagster/storage/check_footage_recentclips/ujala/2022-01-01 using PickledObjectFilesystemIOManager...
[32m2024-07-09 23:20:10 -0700[0m - dagster - [34mDEBUG[0m - teslacam_job - bf25f277-d6ac-4b8b-a3b9-947281bec42f - 70152 - process_footage_recentclips - LOADED_INPUT - Loaded input "check_footage_recentclips" using input manager "io_manager", from output "result" of step "check_footage_recentclips"
[32m2024-07-09 23:20:10 -0700[0m - dagster - [34mDEBUG[0m - teslacam_job - bf25f277-d6ac-4b8b-a3b9-947281bec42f - 70152 - process_footage_recentclips - STEP_INPUT - Got input "check_footage_recentclips" of type "Any". (Type check passed).
[32m2024-07-09 23:20:21 -0700[0m - dagster - [34mDEBUG[0m - teslacam_job - bf25f277-d6ac-4b8b-a3b9-947281bec42f - 70152 - process_footage_recentclips - STEP_OUTPUT - Yielded output "result" of type "Any". (Type check passed).
[32m2024-07-09 23:20:21 -0700[0m - dagster - [34mDEBUG[0m - teslacam_job - bf25f277-d6ac-4b8b-a3b9-947281bec42f - process_footage_recentclips - Writing file at: /Users/pushpak.ravitej/deploy/dev/dagster/storage/process_footage_recentclips/ujala/2022-01-01 using PickledObjectFilesystemIOManager...
[32m2024-07-09 23:20:21 -0700[0m - dagster - [34mDEBUG[0m - teslacam_job - bf25f277-d6ac-4b8b-a3b9-947281bec42f - 70152 - process_footage_recentclips - ASSET_MATERIALIZATION - Materialized value process_footage_recentclips.
[32m2024-07-09 23:20:21 -0700[0m - dagster - [34mDEBUG[0m - teslacam_job - bf25f277-d6ac-4b8b-a3b9-947281bec42f - 70152 - process_footage_recentclips - HANDLED_OUTPUT - Handled output "result" using IO manager "io_manager"
[32m2024-07-09 23:20:21 -0700[0m - dagster - [34mDEBUG[0m - teslacam_job - bf25f277-d6ac-4b8b-a3b9-947281bec42f - 70152 - process_footage_recentclips - STEP_SUCCESS - Finished execution of step "process_footage_recentclips" in 11.71s.
