[32m2024-07-08 22:12:41 -0700[0m - dagster - [34mDEBUG[0m - ha_pkdb - 62afd0d3-18df-4cca-a53d-fdca8358f592 - 88775 - LOGS_CAPTURED - Started capturing logs in process (pid: 88775).
[32m2024-07-08 22:12:41 -0700[0m - dagster - [34mDEBUG[0m - ha_pkdb - 62afd0d3-18df-4cca-a53d-fdca8358f592 - 88775 - ha_postgres_extractor_ha_postgres_target - STEP_START - Started execution of step "ha_postgres_extractor_ha_postgres_target".
[32m2024-07-08 22:12:41 -0700[0m - dagster - [34mDEBUG[0m - ha_pkdb - 62afd0d3-18df-4cca-a53d-fdca8358f592 - 88775 - ha_postgres_extractor_ha_postgres_target - STEP_INPUT - Got input "env" of type "dict?". (Type check passed).
[32m2024-07-08 22:12:41 -0700[0m - dagster - [34mINFO[0m - ha_pkdb - 62afd0d3-18df-4cca-a53d-fdca8358f592 - ha_postgres_extractor_ha_postgres_target - Using temporary directory: /var/folders/h1/7b_5kpvx63d0s2rr78yc58yw0000gq/T
[32m2024-07-08 22:12:41 -0700[0m - dagster - [34mINFO[0m - ha_pkdb - 62afd0d3-18df-4cca-a53d-fdca8358f592 - ha_postgres_extractor_ha_postgres_target - Temporary script location: /var/folders/h1/7b_5kpvx63d0s2rr78yc58yw0000gq/T/tmpvv42gj8c
[32m2024-07-08 22:12:41 -0700[0m - dagster - [34mINFO[0m - ha_pkdb - 62afd0d3-18df-4cca-a53d-fdca8358f592 - ha_postgres_extractor_ha_postgres_target - Running command:
meltano run ha-postgres-extractor ha-postgres-target --force
[32m2024-07-08 22:12:41 -0700[0m - dagster - [34mINFO[0m - ha_pkdb - 62afd0d3-18df-4cca-a53d-fdca8358f592 - ha_postgres_extractor_ha_postgres_target - Command pid: 88787
[32m2024-07-08 22:12:41 -0700[0m - dagster - [34mINFO[0m - ha_pkdb - 62afd0d3-18df-4cca-a53d-fdca8358f592 - ha_postgres_extractor_ha_postgres_target - {'event': "Environment 'prod' is active", 'level': 'info', 'timestamp': '2024-07-09T05:12:41.918057Z'}
[32m2024-07-08 22:12:42 -0700[0m - dagster - [34mINFO[0m - ha_pkdb - 62afd0d3-18df-4cca-a53d-fdca8358f592 - ha_postgres_extractor_ha_postgres_target - Cannot start plugin ha-postgres-target: Executable 'target-postgres' could not be found. Loader 'ha-postgres-target' may not have been installed yet using `meltano install loader ha-postgres-target`, or the executable name may be incorrect.
[32m2024-07-08 22:12:42 -0700[0m - dagster - [34mINFO[0m - ha_pkdb - 62afd0d3-18df-4cca-a53d-fdca8358f592 - ha_postgres_extractor_ha_postgres_target - {'set_number': 0, 'block_type': 'ExtractLoadBlocks', 'success': False, 'err': RunnerError("Cannot start plugin ha-postgres-target: Executable 'target-postgres' could not be found. Loader 'ha-postgres-target' may not have been installed yet using `meltano install loader ha-postgres-target`, or the executable name may be incorrect."), 'exit_codes': {}, 'event': 'Block run completed.', 'level': 'error', 'timestamp': '2024-07-09T05:12:42.575853Z'}
[32m2024-07-08 22:12:42 -0700[0m - dagster - [34mINFO[0m - ha_pkdb - 62afd0d3-18df-4cca-a53d-fdca8358f592 - ha_postgres_extractor_ha_postgres_target - Need help fixing this problem? Visit http://melta.no/ for troubleshooting steps, or to
[32m2024-07-08 22:12:42 -0700[0m - dagster - [34mINFO[0m - ha_pkdb - 62afd0d3-18df-4cca-a53d-fdca8358f592 - ha_postgres_extractor_ha_postgres_target - join our friendly Slack community.
[32m2024-07-08 22:12:42 -0700[0m - dagster - [34mINFO[0m - ha_pkdb - 62afd0d3-18df-4cca-a53d-fdca8358f592 - ha_postgres_extractor_ha_postgres_target
[32m2024-07-08 22:12:42 -0700[0m - dagster - [34mINFO[0m - ha_pkdb - 62afd0d3-18df-4cca-a53d-fdca8358f592 - ha_postgres_extractor_ha_postgres_target - Run invocation could not be completed as block failed: Cannot start plugin ha-postgres-target: Executable 'target-postgres' could not be found. Loader 'ha-postgres-target' may not have been installed yet using `meltano install loader ha-postgres-target`, or the executable name may be incorrect.
[32m2024-07-08 22:12:43 -0700[0m - dagster - [34mINFO[0m - ha_pkdb - 62afd0d3-18df-4cca-a53d-fdca8358f592 - ha_postgres_extractor_ha_postgres_target - Command exited with return code 1
[32m2024-07-08 22:12:43 -0700[0m - dagster - [34mERROR[0m - [31mha_pkdb - 62afd0d3-18df-4cca-a53d-fdca8358f592 - 88775 - ha_postgres_extractor_ha_postgres_target - STEP_FAILURE - Execution of step "ha_postgres_extractor_ha_postgres_target" failed.

Exceeded max_retries of 0:

dagster_meltano.exceptions.MeltanoCommandError: Command 'run ha-postgres-extractor ha-postgres-target --force' failed with exit code 1

Stack Trace:
  File "/Users/pushpak.ravitej/deploy/dev/dagster/meltano/.venv/lib/python3.12/site-packages/dagster/_core/execution/plan/utils.py", line 54, in op_execution_error_boundary
    yield
  File "/Users/pushpak.ravitej/deploy/dev/dagster/meltano/.venv/lib/python3.12/site-packages/dagster/_utils/__init__.py", line 468, in iterate_with_context
    next_output = next(iterator)
                  ^^^^^^^^^^^^^^
  File "/Users/pushpak.ravitej/deploy/dev/dagster/meltano/.venv/lib/python3.12/site-packages/dagster/_core/execution/plan/compute_generator.py", line 141, in _coerce_op_compute_fn_to_iterator
    result = invoke_compute_fn(
             ^^^^^^^^^^^^^^^^^^
  File "/Users/pushpak.ravitej/deploy/dev/dagster/meltano/.venv/lib/python3.12/site-packages/dagster/_core/execution/plan/compute_generator.py", line 129, in invoke_compute_fn
    return fn(context, **args_to_pass) if context_arg_provided else fn(**args_to_pass)
           ^^^^^^^^^^^^^^^^^^^^^^^^^^^
  File "/Users/pushpak.ravitej/deploy/dev/dagster/meltano/.venv/lib/python3.12/site-packages/dagster_meltano/ops.py", line 93, in dagster_op
    output = meltano_resource.execute_command(f"{command}", env, context.log)
             ^^^^^^^^^^^^^^^^^^^^^^^^^^^^^^^^^^^^^^^^^^^^^^^^^^^^^^^^^^^^^^^^
  File "/Users/pushpak.ravitej/deploy/dev/dagster/meltano/.venv/lib/python3.12/site-packages/dagster_meltano/meltano_resource.py", line 70, in execute_command
    raise MeltanoCommandError(
[0m
