[32m2024-07-06 19:21:32 -0700[0m - dagster - [34mDEBUG[0m - teslacam_job - e17a2737-e847-4c7a-b2fe-1a50230e8aec - 66251 - LOGS_CAPTURED - Started capturing logs in process (pid: 66251).
[32m2024-07-06 19:21:32 -0700[0m - dagster - [34mDEBUG[0m - teslacam_job - e17a2737-e847-4c7a-b2fe-1a50230e8aec - 66251 - check_footage_recentclips - STEP_START - Started execution of step "check_footage_recentclips".
[32m2024-07-06 19:21:40 -0700[0m - dagster - [34mINFO[0m - teslacam_job - e17a2737-e847-4c7a-b2fe-1a50230e8aec - check_footage_recentclips - looking for files in /Users/pushpak.ravitej/personal/Teslacam/src/SentryClips
Traceback (most recent call last):
  File "/Users/pushpak.ravitej/.vscode/extensions/ms-python.debugpy-2024.6.0-darwin-arm64/bundled/libs/debugpy/_vendored/pydevd/_pydevd_bundle/pydevd_frame.py", line 1197, in trace_dispatch
    self.do_wait_suspend(thread, frame, event, arg)
  File "/Users/pushpak.ravitej/.vscode/extensions/ms-python.debugpy-2024.6.0-darwin-arm64/bundled/libs/debugpy/_vendored/pydevd/_pydevd_bundle/pydevd_frame.py", line 165, in do_wait_suspend
    self._args[0].do_wait_suspend(*args, **kwargs)
  File "/Users/pushpak.ravitej/.vscode/extensions/ms-python.debugpy-2024.6.0-darwin-arm64/bundled/libs/debugpy/_vendored/pydevd/pydevd.py", line 2070, in do_wait_suspend
    keep_suspended = self._do_wait_suspend(thread, frame, event, arg, suspend_type, from_this_thread, frames_tracker)
                     ^^^^^^^^^^^^^^^^^^^^^^^^^^^^^^^^^^^^^^^^^^^^^^^^^^^^^^^^^^^^^^^^^^^^^^^^^^^^^^^^^^^^^^^^^^^^^^^^
  File "/Users/pushpak.ravitej/.vscode/extensions/ms-python.debugpy-2024.6.0-darwin-arm64/bundled/libs/debugpy/_vendored/pydevd/pydevd.py", line 2106, in _do_wait_suspend
    time.sleep(0.01)
  File "/Users/pushpak.ravitej/deploy/.venv/lib/python3.12/site-packages/dagster/_utils/interrupts.py", line 82, in _new_signal_handler
    raise error_cls()
dagster._core.errors.DagsterExecutionInterruptedError
[32m2024-07-06 19:28:07 -0700[0m - dagster - [34mERROR[0m - [31mteslacam_job - e17a2737-e847-4c7a-b2fe-1a50230e8aec - 66251 - check_footage_recentclips - STEP_FAILURE - Execution of step "check_footage_recentclips" failed.

dagster._core.errors.DagsterExecutionInterruptedError

Stack Trace:
  File "/Users/pushpak.ravitej/deploy/.venv/lib/python3.12/site-packages/dagster/_core/execution/plan/execute_plan.py", line 282, in dagster_event_sequence_for_step
    for step_event in check.generator(step_events):
  File "/Users/pushpak.ravitej/deploy/.venv/lib/python3.12/site-packages/dagster/_core/execution/plan/execute_step.py", line 501, in core_dagster_event_sequence_for_step
    for user_event in _step_output_error_checked_user_event_sequence(
  File "/Users/pushpak.ravitej/deploy/.venv/lib/python3.12/site-packages/dagster/_core/execution/plan/execute_step.py", line 186, in _step_output_error_checked_user_event_sequence
    for user_event in user_event_sequence:
  File "/Users/pushpak.ravitej/deploy/.venv/lib/python3.12/site-packages/dagster/_core/execution/plan/execute_step.py", line 91, in _process_asset_results_to_events
    for user_event in user_event_sequence:
  File "/Users/pushpak.ravitej/deploy/.venv/lib/python3.12/site-packages/dagster/_core/execution/plan/compute.py", line 195, in execute_core_compute
    for step_output in _yield_compute_results(step_context, inputs, compute_fn, compute_context):
  File "/Users/pushpak.ravitej/deploy/.venv/lib/python3.12/site-packages/dagster/_core/execution/plan/compute.py", line 164, in _yield_compute_results
    for event in iterate_with_context(
  File "/Users/pushpak.ravitej/deploy/.venv/lib/python3.12/site-packages/dagster/_utils/__init__.py", line 468, in iterate_with_context
    next_output = next(iterator)
                  ^^^^^^^^^^^^^^
  File "/Users/pushpak.ravitej/deploy/dev/dagster/teslacam/assets.py", line 149, in check_footage_recentclips
    folder_name = Path(file).parent.name
    ^^^^^^
  File "/Users/pushpak.ravitej/.vscode/extensions/ms-python.debugpy-2024.6.0-darwin-arm64/bundled/libs/debugpy/_vendored/pydevd/_pydevd_bundle/pydevd_frame.py", line 1197, in trace_dispatch
    self.do_wait_suspend(thread, frame, event, arg)
  File "/Users/pushpak.ravitej/.vscode/extensions/ms-python.debugpy-2024.6.0-darwin-arm64/bundled/libs/debugpy/_vendored/pydevd/_pydevd_bundle/pydevd_frame.py", line 165, in do_wait_suspend
    self._args[0].do_wait_suspend(*args, **kwargs)
  File "/Users/pushpak.ravitej/.vscode/extensions/ms-python.debugpy-2024.6.0-darwin-arm64/bundled/libs/debugpy/_vendored/pydevd/pydevd.py", line 2070, in do_wait_suspend
    keep_suspended = self._do_wait_suspend(thread, frame, event, arg, suspend_type, from_this_thread, frames_tracker)
                     ^^^^^^^^^^^^^^^^^^^^^^^^^^^^^^^^^^^^^^^^^^^^^^^^^^^^^^^^^^^^^^^^^^^^^^^^^^^^^^^^^^^^^^^^^^^^^^^^
  File "/Users/pushpak.ravitej/.vscode/extensions/ms-python.debugpy-2024.6.0-darwin-arm64/bundled/libs/debugpy/_vendored/pydevd/pydevd.py", line 2106, in _do_wait_suspend
    time.sleep(0.01)
  File "/Users/pushpak.ravitej/deploy/.venv/lib/python3.12/site-packages/dagster/_utils/interrupts.py", line 82, in _new_signal_handler
    raise error_cls()
[0m
